\documentclass{article}
 
% Load the package with the acronym option
\usepackage[acronym,nomain]{glossaries}
 
% Generate the glossary
\makeglossaries
 
\begin{document}
 
\section*{Section with acronyms}
 
% Acronym definitions
\newacronym{utc}{UTC}{Coordinated Universal Time}
\newacronym{adt}{ADT}{Atlantic Daylight Time}
\newacronym{est}{EST}{Eastern Standard Time}
 
% Use the acronyms
\gls{utc} is 3 hours behind \gls{adt} and 10 hours ahead of \gls{est}.
 
%Print the glossary
\printglossaries
 
\end{document}