\relax 
\AC@reset@newl@bel
\newacro{ucsc}[UCSC]{University of Colombo School of Computing}
\select@language{english}
\@writefile{toc}{\select@language{english}}
\@writefile{lof}{\select@language{english}}
\@writefile{lot}{\select@language{english}}
\AC@undonewlabel{acro:NTU}
\newlabel{acro:NTU}{{}{2}}
\acronymused{NTU}
\newacro{UCSC}[\AC@hyperlink{UCSC}{UCSC}]{University of Colombo School of Computing}
\newacro{SCoRe}[\AC@hyperlink{SCoRe}{SCoRe}]{Sustainable Computing Research Group}
\newacro{NTU}[\AC@hyperlink{NTU}{NTU}]{Nanyang Technological University}
\newacro{ICT}[\AC@hyperlink{ICT}{ICT}]{Information and Communication Technology}
\@writefile{toc}{\contentsline {section}{\numberline {1}Company profile}{4}}
\@writefile{toc}{\contentsline {subsection}{\numberline {1.1}Introduction}{4}}
\AC@undonewlabel{acro:SCoRe}
\newlabel{acro:SCoRe}{{1.1}{4}}
\acronymused{SCoRe}
\AC@undonewlabel{acro:UCSC}
\newlabel{acro:UCSC}{{1.1}{4}}
\acronymused{UCSC}
\AC@undonewlabel{acro:ICT}
\newlabel{acro:ICT}{{1.1}{4}}
\acronymused{ICT}
\@writefile{toc}{\contentsline {subsection}{\numberline {1.2}Management Structure}{4}}
\@writefile{toc}{\contentsline {subsection}{\numberline {1.3}Technologies}{4}}
\@writefile{toc}{\contentsline {subsection}{\numberline {1.4}Products and Services}{4}}
\@writefile{toc}{\contentsline {subsection}{\numberline {1.5}Technology Partners}{5}}
\@writefile{toc}{\contentsline {subsection}{\numberline {1.6}Clients}{5}}
\@writefile{toc}{\contentsline {subsection}{\numberline {1.7}Awards and Publication}{5}}
\@writefile{toc}{\contentsline {section}{\numberline {2}Training and experience gained}{6}}
\@writefile{toc}{\contentsline {subsection}{\numberline {2.1}Introduction}{6}}
\@writefile{toc}{\contentsline {subsection}{\numberline {2.2}Detailed Description about my training in SCoRe Lab}{6}}
\@writefile{toc}{\contentsline {subsection}{\numberline {2.3}My Contribution}{6}}
\@writefile{toc}{\contentsline {subsubsection}{\numberline {2.3.1}Research about "Detecting Dengue breading sites using aerial images."}{6}}
\@writefile{toc}{\contentsline {paragraph}{Image processing approach}{6}}
\@writefile{toc}{\contentsline {paragraph}{Manual approach}{6}}
\@writefile{toc}{\contentsline {subsubsection}{\numberline {2.3.2}elephant localization using infra sound data}{6}}
\acronymused{NTU}
\@writefile{toc}{\contentsline {subsubsection}{\numberline {2.3.3}Drone tracking application for \ac {NTU}, Singapore }{6}}
\@writefile{toc}{\contentsline {subsubsection}{\numberline {2.3.4}Web server for elephant identification using aerial images.}{6}}
\@writefile{toc}{\contentsline {subsubsection}{\numberline {2.3.5}Working as a mentor of Google code-in}{6}}
\@writefile{toc}{\contentsline {section}{\numberline {3}Observation and Comments}{7}}
\@writefile{toc}{\contentsline {subsection}{\numberline {3.1}Self review}{7}}
\@writefile{toc}{\contentsline {section}{\numberline {4}Reflection}{8}}
\@writefile{toc}{\contentsline {subsection}{\numberline {4.1}Reflection \& Learning Outcome}{8}}
\@writefile{toc}{\contentsline {subsection}{\numberline {4.2}Conclusion}{8}}
\@writefile{toc}{\contentsline {section}{\numberline {5}Appendices}{9}}
\bibstyle{plain}
\bibdata{biblist}
\bibcite{bibtex}{{1}{}{{}}{{}}}
\@writefile{toc}{\contentsline {section}{\numberline {6}References}{10}}
\providecommand\NAT@force@numbers{}\NAT@force@numbers
\@writefile{toc}{\contentsline {section}{\numberline {7}Progress reports}{11}}
\@writefile{toc}{\contentsline {section}{\numberline {8}Letter of Completion}{11}}
\@writefile{toc}{\contentsline {section}{\numberline {9}Industrial Training Programme Evaluation Form}{11}}
